{
    "tools": [
        {
            "id": "0",
            "name": "[default]",
            "tcp": [0, 0, 0, 0, 0, 0]
        }
    ],
    "payloads": [
        {
            "id": "0",
            "name": "[default]",
            "mass": 0.0,
            "comX": 0.0,
            "comY": 0.0,
            "comZ": 0.0
        }
    ],
    "frames": [
        {
            "id": "0",
            "name": "[default]",
            "position": [0, 0, 0, 0, 0, 0]
        }
    ],
    "startup": {
        "programName": "",
        "open": false,
        "start": false,
        "releaseBrakes": false
    },
    "io": {
        "do": [
            {
                "name": "digital_out[0]"
            },
            {
                "name": "digital_out[1]"
            },
            {
                "name": "digital_out[2]"
            },
            {
                "name": "digital_out[3]"
            },
            {
                "name": "digital_out[4]"
            },
            {
                "name": "digital_out[5]"
            },
            {
                "name": "digital_out[6]"
            },
            {
                "name": "digital_out[7]"
            },
            {
                "name": "digital_out[8]"
            },
            {
                "name": "digital_out[9]"
            },
            {
                "name": "digital_out[10]"
            },
            {
                "name": "digital_out[11]"
            },
            {
                "name": "digital_out[12]"
            },
            {
                "name": "digital_out[13]"
            },
            {
                "name": "digital_out[14]"
            },
            {
                "name": "digital_out[15]"
            },
            {
                "name": "digital_out[16]"
            },
            {
                "name": "digital_out[17]"
            },
            {
                "name": "digital_out[18]"
            },
            {
                "name": "digital_out[19]"
            },
            {
                "name": "digital_out[20]"
            },
            {
                "name": "digital_out[21]"
            },
            {
                "name": "digital_out[22]"
            },
            {
                "name": "digital_out[23]"
            }
        ],
        "di": [
            {
                "name": "digital_in[0]"
            },
            {
                "name": "digital_in[1]"
            },
            {
                "name": "digital_in[2]"
            },
            {
                "name": "digital_in[3]"
            },
            {
                "name": "digital_in[4]"
            },
            {
                "name": "digital_in[5]"
            },
            {
                "name": "digital_in[6]"
            },
            {
                "name": "digital_in[7]"
            },
            {
                "name": "digital_in[8]"
            },
            {
                "name": "digital_in[9]"
            },
            {
                "name": "digital_in[10]"
            },
            {
                "name": "digital_in[11]"
            },
            {
                "name": "digital_in[12]"
            },
            {
                "name": "digital_in[13]"
            },
            {
                "name": "digital_in[14]"
            },
            {
                "name": "digital_in[15]"
            },
            {
                "name": "digital_in[16]"
            },
            {
                "name": "digital_in[17]"
            },
            {
                "name": "digital_in[18]"
            },
            {
                "name": "digital_in[19]"
            },
            {
                "name": "digital_in[20]"
            },
            {
                "name": "digital_in[21]"
            },
            {
                "name": "digital_in[22]"
            },
            {
                "name": "digital_in[23]"
            }
        ],
        "ao": [
            {
                "name": "analog_out[0]"
            },
            {
                "name": "analog_out[1]"
            },
            {
                "name": "analog_out[2]"
            },
            {
                "name": "analog_out[3]"
            }
        ],
        "ai": [
            {
                "name": "analog_in[0]"
            },
            {
                "name": "analog_in[1]"
            },
            {
                "name": "analog_in[2]"
            },
            {
                "name": "analog_in[3]"
            }
        ]
    }
}
